23
300
0,30,50,2,20,Makende,1 4,5 2,8 3,17 4,18 4,19 4
1,33,55,3,0,Pete,0 4,3 1,8 7
2,45,57,3,0,Kamero,3 7,4 2
3,35,40,0,0,Masumbiri,1 1,2 7,4 3,12 1
4,48,30,2,25,Bumbe,2 2,3 3,5 12,12 1
5,30,43,3,0,Simria,0 2,4 12
6,48,75,0,0,Kania,7 10
7,65,80,3,0,Kulanko,6 10,10 3,9 13
8,25,63,3,0,Mato,1 7,0 3,13 4,17 5,18 5,19 5
9,70,45,3,0,Safinia,7 13,12 4
10,67,85,2,20,Firawa,7 3
11,95,55,2,31,Kawama,12 6
12,75,35,1,0,Yengema,11 6,9 4,4 1,3 1
13,25,70,0,0,Karina,8 4,14 8,15 9,21 8
14,34,70,1,0,Kamera,13 8
15,27,87,3,0,Sinegal,13 9,16 3
16,27,90,2,18,Fadugu,15 3
17,23,45,0,0,Makeni,18 0,19 0,8 5,0 4,20 7,21 7
18,23,43,1,0,Makeni,17 0,19 0,8 5,0 4,20 7,21 7
19,23,41,2,33,Makeni,17 0,18 0,8 5,0 4,20 7,21 7
20,5,50,2,40,Mahakoi,17 7,18 7,19 7,21 7
21,16,63,3,0,Suniya,17 7,18 7,19 7,13 8,20 7,22 8
22,13,70,2,13,Bure,21 8