23
40
0,30,50,2,5,Makende,1 0,5 2,8 3,17 4,18 4,19 1,4 11
1,33,55,1,0,Pete,0 0,2 10,3 1,6 0,8 1,13 1,15 20
2,45,57,1,0,Kamero,1 10,3 7,4 2,11 8,7 20
3,35,40,0,0,Masumbiri,1 1,2 7,4 3,5 8,6 15,12 1
4,48,30,2,7,Bumbe,2 2,3 0,5 12,12 1,0 11
5,30,43,1,0,Simria,0 2,3 8,4 12,17 4,18 4,19 4,20 13,12 14
6,48,75,0,0,Kania,3 15,7 10,1 0,9 18,16 1,15 30,10 1
7,65,80,1,0,Kulanko,6 10,10 3,11 20,9 13,2 20
8,25,63,3,0,Mato,1 1,0 3,13 4,17 5,18 5,19 5,21 10,20 1
9,70,45,1,0,Safinia,6 18,7 13,12 4,11 10,10 18
10,67,85,2,6,Firawa,7 3,16 40,12 23,11 2,9 18,6 1
11,95,55,2,10,Kawama,7 20,12 6,2 8,9 10,10 2
12,75,35,1,0,Yengema,11 6,9 4,4 1,3 1,5 14,10 23
13,25,70,0,0,Karina,8 4,1 1,14 8,15 9,21 8,22 2
14,34,70,1,0,Kamera,13 8,16 17,15 15,21 27,22 15
15,27,87,1,0,Sinegal,13 9,16 3,6 30,1 20,14 15
16,27,90,2,4,Fadugu,15 3,10 40,6 1,14 17,22 25
17,23,45,0,0,Makeni,18 5,19 0,8 5,0 4,5 4,20 7,21 7
18,23,43,1,0,Makeni,17 5,19 5,8 5,0 4,5 4,20 7,21 7
19,23,41,2,12,Makeni,17 0,18 5,8 5,0 1,5 4,20 7,21 7
20,5,50,2,15,Mahakoi,17 7,18 7,19 7,21 7,22 17,8 1,5 13
21,16,63,1,0,Suniya,17 7,18 7,19 7,13 8,20 7,22 8,14 27,8 10
22,13,70,2,3,Bure,21 8,13 2,16 25,14 15,20 17